{
  "project_info": {
    "project_number": "276693805444",
    "firebase_url": "https://girls-things-46591.firebaseio.com",
    "project_id": "girls-things-46591",
    "storage_bucket": "girls-things-46591.appspot.com"
  },
  "client": [
    {
      "client_info": {
        "mobilesdk_app_id": "1:276693805444:android:4f6bd254cf14d0584795d1",
        "android_client_info": {
          "package_name": "com.example.girlthings"
        }
      },
      "oauth_client": [
        {
          "client_id": "276693805444-r1e8leeva2lpufh1lb4jtddabt1poeui.apps.googleusercontent.com",
          "client_type": 3
        }
      ],
      "api_key": [
        {
          "current_key": "AIzaSyBpj5GmOtgpAQ-5Sv7Po_hQxU6fWSECOwM"
        }
      ],
      "services": {
        "appinvite_service": {
          "other_platform_oauth_client": [
            {
              "client_id": "276693805444-r1e8leeva2lpufh1lb4jtddabt1poeui.apps.googleusercontent.com",
              "client_type": 3
            }
          ]
        }
      }
    }
  ],
  "configuration_version": "1"
}